^Z:\TOM\LIBRARY\WEB\WORK\DIPLOMAS\PROGS\NIK\SERVER\SERVER\MAIN.CPP
Z:\TOM\LIBRARY\WEB\WORK\DIPLOMAS\PROGS\NIK\SERVER\SERVER\RELEASE\VC141.PDB
Z:\TOM\LIBRARY\WEB\WORK\DIPLOMAS\PROGS\NIK\SERVER\SERVER\RELEASE\MAIN.OBJ
