^Z:\TOM\LIBRARY\WEB\WORK\DIPLOMAS\PROGS\NIK\SERVER\SERVER\RELEASE\MAIN.OBJ
C:\PROGRAM FILES\WINDOWS KITS\10\LIB\10.0.16299.0\UM\X86\KERNEL32.LIB
C:\PROGRAM FILES\WINDOWS KITS\10\LIB\10.0.16299.0\UM\X86\USER32.LIB
C:\PROGRAM FILES\WINDOWS KITS\10\LIB\10.0.16299.0\UM\X86\GDI32.LIB
C:\PROGRAM FILES\WINDOWS KITS\10\LIB\10.0.16299.0\UM\X86\WINSPOOL.LIB
C:\PROGRAM FILES\WINDOWS KITS\10\LIB\10.0.16299.0\UM\X86\COMDLG32.LIB
C:\PROGRAM FILES\WINDOWS KITS\10\LIB\10.0.16299.0\UM\X86\ADVAPI32.LIB
C:\PROGRAM FILES\WINDOWS KITS\10\LIB\10.0.16299.0\UM\X86\SHELL32.LIB
C:\PROGRAM FILES\WINDOWS KITS\10\LIB\10.0.16299.0\UM\X86\OLE32.LIB
C:\PROGRAM FILES\WINDOWS KITS\10\LIB\10.0.16299.0\UM\X86\OLEAUT32.LIB
C:\PROGRAM FILES\WINDOWS KITS\10\LIB\10.0.16299.0\UM\X86\UUID.LIB
C:\PROGRAM FILES\WINDOWS KITS\10\LIB\10.0.16299.0\UM\X86\ODBC32.LIB
C:\PROGRAM FILES\WINDOWS KITS\10\LIB\10.0.16299.0\UM\X86\ODBCCP32.LIB
Z:\TOM\LIBRARY\WEB\WORK\DIPLOMAS\PROGS\NIK\SERVER\SERVER\RELEASE\MAIN.OBJ
C:\WINDOWS\GLOBALIZATION\SORTING\SORTDEFAULT.NLS
C:\PROGRAM FILES\MICROSOFT VISUAL STUDIO\2017\COMMUNITY\VC\TOOLS\MSVC\14.13.26128\BIN\HOSTX86\X86\C2.DLL
C:\PROGRAM FILES\WINDOWS KITS\10\LIB\10.0.16299.0\UM\X86\WS2_32.LIB
C:\PROGRAM FILES\MICROSOFT VISUAL STUDIO\2017\COMMUNITY\VC\TOOLS\MSVC\14.13.26128\LIB\X86\LIBCPMT.LIB
C:\PROGRAM FILES\MICROSOFT VISUAL STUDIO\2017\COMMUNITY\VC\TOOLS\MSVC\14.13.26128\LIB\X86\LIBCMT.LIB
C:\PROGRAM FILES\MICROSOFT VISUAL STUDIO\2017\COMMUNITY\VC\TOOLS\MSVC\14.13.26128\LIB\X86\OLDNAMES.LIB
C:\PROGRAM FILES\MICROSOFT VISUAL STUDIO\2017\COMMUNITY\VC\TOOLS\MSVC\14.13.26128\LIB\X86\LIBVCRUNTIME.LIB
C:\PROGRAM FILES\WINDOWS KITS\10\LIB\10.0.16299.0\UCRT\X86\LIBUCRT.LIB
C:\PROGRAM FILES\MICROSOFT VISUAL STUDIO\2017\COMMUNITY\VC\TOOLS\MSVC\14.13.26128\BIN\HOSTX86\X86\1049\LINKUI.DLL
C:\PROGRAM FILES\WINDOWS KITS\10\BIN\10.0.16299.0\X86\RC.EXE
C:\PROGRAM FILES\MICROSOFT VISUAL STUDIO\2017\COMMUNITY\VC\TOOLS\MSVC\14.13.26128\BIN\HOSTX86\X86\CVTRES.EXE
C:\PROGRAM FILES\MICROSOFT VISUAL STUDIO\2017\COMMUNITY\VC\TOOLS\MSVC\14.13.26128\BIN\HOSTX86\X86\MSPDBSRV.EXE
C:\PROGRAM FILES\MICROSOFT VISUAL STUDIO\2017\COMMUNITY\VC\TOOLS\MSVC\14.13.26128\BIN\HOSTX86\X86\VCTIP.EXE
C:\WINDOWS\SYSTEM32\RSAENH.DLL
